%YAML 1.1
%TAG !u! tag:unity3d.com,2011:
--- !u!1 &3756868876368515555
GameObject:
  m_ObjectHideFlags: 0
  m_CorrespondingSourceObject: {fileID: 0}
  m_PrefabInstance: {fileID: 0}
  m_PrefabAsset: {fileID: 0}
  serializedVersion: 6
  m_Component:
  - component: {fileID: 3756868876368515553}
  - component: {fileID: 3756868876368515554}
  m_Layer: 0
  m_Name: Shields
  m_TagString: Untagged
  m_Icon: {fileID: 0}
  m_NavMeshLayer: 0
  m_StaticEditorFlags: 0
  m_IsActive: 1
--- !u!4 &3756868876368515553
Transform:
  m_ObjectHideFlags: 0
  m_CorrespondingSourceObject: {fileID: 0}
  m_PrefabInstance: {fileID: 0}
  m_PrefabAsset: {fileID: 0}
  m_GameObject: {fileID: 3756868876368515555}
  m_LocalRotation: {x: -0, y: -0, z: -0, w: 1}
  m_LocalPosition: {x: 0, y: 0, z: -10}
  m_LocalScale: {x: 1, y: 1, z: 1}
  m_Children: []
  m_Father: {fileID: 0}
  m_RootOrder: 0
  m_LocalEulerAnglesHint: {x: 0, y: 0, z: 0}
--- !u!114 &3756868876368515554
MonoBehaviour:
  m_ObjectHideFlags: 0
  m_CorrespondingSourceObject: {fileID: 0}
  m_PrefabInstance: {fileID: 0}
  m_PrefabAsset: {fileID: 0}
  m_GameObject: {fileID: 3756868876368515555}
  m_Enabled: 1
  m_EditorHideFlags: 0
  m_Script: {fileID: 11500000, guid: 07a07f161e54f46229d130d99f2876f3, type: 3}
  m_Name: 
  m_EditorClassIdentifier: 
  chargeText: {fileID: 0}
  shieldSliderList:
  - {fileID: 0}
  - {fileID: 0}
  - {fileID: 0}
  collector: {fileID: 0}
  startingCharge: 15
  maxChargePerShield: 20
  cooldown: 2
  shieldUnchargedColor: {r: 0.05271244, g: 0, b: 1, a: 1}
  shieldChargedColor: {r: 0.0047169924, g: 0.9800981, b: 1, a: 1}
